^C:\USERS\LHERNANDEZM\DOCUMENTS\VISUAL STUDIO 2013\PROJECTS\CRACKV\CRACKV\CRACKV.C
/c /ZI /nologo /W3 /WX- /sdl /Od /Oy- /D WIN32 /D _DEBUG /D _CONSOLE /D _LIB /D _UNICODE /D UNICODE /Gm /EHsc /RTC1 /MDd /GS /fp:precise /Zc:wchar_t /Zc:forScope /Fo"DEBUG\\" /Fd"DEBUG\VC120.PDB" /Gd /TC /analyze- C:\USERS\LHERNANDEZM\DOCUMENTS\VISUAL STUDIO 2013\PROJECTS\CRACKV\CRACKV\CRACKV.C
^C:\USERS\LHERNANDEZM\DOCUMENTS\VISUAL STUDIO 2013\PROJECTS\CRACKV\CRACKV\PTEXT.TXT
/c /ZI /nologo /W3 /WX- /sdl /Od /Oy- /D WIN32 /D _DEBUG /D _CONSOLE /D _LIB /D _UNICODE /D UNICODE /Gm /EHsc /RTC1 /MDd /GS /fp:precise /Zc:wchar_t /Zc:forScope /Fo"DEBUG\\" /Fd"DEBUG\VC120.PDB" /Gd /TP /analyze- C:\USERS\LHERNANDEZM\DOCUMENTS\VISUAL STUDIO 2013\PROJECTS\CRACKV\CRACKV\PTEXT.TXT
